[   0.000000] Initializing cgroup subsys cpuset
[    0.000000] Initializing cgroup subsys cpu
[    0.000000] Initializing cgroup subsys cpuacct
[    0.000000] Linux version 4.4.0-139-generic (buildd@lcy01-amd64-006) (gcc version 5.4.0 20160609 (Ubuntu 5.4.0-6ubuntu1~16.04.10) ) #165-Ubuntu SMP Wed Oct 24 10:58:50 UTC 2018 (Ubuntu 4.4.0-139.165-generic 4.4.160)
[    0.000000] Command line: BOOT_IMAGE=/boot/vmlinuz-4.4.0-139-generic root=UUID=1c050405-4cdf-47cf-828d-1e284615b91e ro console=tty1 console=ttyS0
[    0.000000] KERNEL supported cpus:
[    0.000000]   Intel GenuineIntel
[    0.000000]   AMD AuthenticAMD
[    0.000000]   Centaur CentaurHauls
[    0.000000] x86/fpu: xstate_offset[2]:  576, xstate_sizes[2]:  256
[    0.000000] x86/fpu: Supporting XSAVE feature 0x01: 'x87 floating point registers'
[    0.000000] x86/fpu: Supporting XSAVE feature 0x02: 'SSE registers'
[    0.000000] x86/fpu: Supporting XSAVE feature 0x04: 'AVX registers'
[    0.000000] x86/fpu: Enabled xstate features 0x7, context size is 832 bytes, using 'standard' format.
[    0.000000] e820: BIOS-provided physical RAM map:
[    0.000000] BIOS-e820: [mem 0x0000000000000000-0x000000000009fbff] usable
[    0.000000] BIOS-e820: [mem 0x000000000009fc00-0x000000000009ffff] reserved
[    0.000000] BIOS-e820: [mem 0x00000000000f0000-0x00000000000fffff] reserved
[    0.000000] BIOS-e820: [mem 0x0000000000100000-0x000000001ffeffff] usable
[    0.000000] BIOS-e820: [mem 0x000000001fff0000-0x000000001fffffff] ACPI data
[    0.000000] BIOS-e820: [mem 0x0000fec00000-0x00000000fec00fff] reserved
[    0.000000] BIOS-e820: [mem 0x00000000fee00000-0x00000000fee00fff] reserved
[    0.000000] BIOS-e820: [mem 0x00000000fffc0000-0x00000000ffffffff] reserved
[    0.000000] NX (Execute Disable) protection: active
[    0.000000] SMBIOS 2.5 present.
[    0.000000] Hypervisor detected: KVM
[    0.000000] e820: last_pfn = 0x1fff0 max_arch_pfn = 0x400000000
[    0.000000] MTRR: Disabled
[    0.000000] x86/PAT: MTRRs disabled, skipping PAT initialization too.
[    0.000000] CPU MTRRs all blank - virtualized system.
[    0.000000] x86/PAT: Configuration [0-7]: WB  WT  UC- UC  WB  WT  UC- UC  
[    0.000000] found SMP MP-table at [mem 0x0009fff0-0x0009ffff] mapped at [ffff88000009fff0]
[    0.000000] Scanning 1 areas for low memory corruption
[    0.000000] RAMDISK: [mem 0x1e80e000-0x1f70dfff]
[    0.000000] ACPI: Early table checksum verification disabled
[    0.000000] ACPI: RSDP 0x00000000000E0000 000024 (v02 VBOX  )
[    0.000000] ACPI: XSDT 0x000000001FFF0030 00003C (v01 VBOX   VBOXXSDT 00000001 ASL  00000061)
[    0.000000] ACPI: FACP 0x000000001FFF00F0 0000F4 (v04 VBOX   VBOXFACP 00000001 ASL  00000061)
[    0.000000] ACPI: DSDT 0x000000001FFF0470 0021FF (v02 VBOX   VBOXBIOS 00000002 INTL 20180629)
[    0.000000] ACPI: FACS 0x000000001FFF0200 000040
[    0.000000] ACPI: FACS 0x000000001FFF0200 000040
[    0.000000] ACPI: APIC 0x000000001FFF0240 00005C (v02 VBOX   VBOXAPIC 00000001 ASL  00000061)
[    0.000000] ACPI: SSDT 0x000000001FFF02A0 0001CC (v01 VBOX   VBOXCPUT 00000002 INTL 20180629)
[    0.000000] No NUMA configuration found
[    0.000000] Faking a node at [mem 0x0000000000000000-0x000000001ffeffff]
[    0.000000] NODE_DATA(0) allocated [mem 0x1ffeb000-0x1ffeffff]
[    0.000000] kvm-clock: Using msrs 4b564d01 and 4b564d00
[    0.000000] kvm-clock: cpu 0, msr 0:1ffe3001, primary cpu clock
[    0.000000] kvm-clock: using sched offset of 3447074349 cycles
[    0.000000] clocksource: kvm-clock: mask: 0xffffffffffffffff max_cycles: 0x1cd42e4dffb, max_idle_ns: 881590591483 ns
[    0.000000] Zone ranges:
[    0.000000]   DMA      [mem 0x0000000000001000-0x0000000000ffffff]
[    0.000000]   DMA32    [mem 0x0000000001000000-0x000000001ffeffff]
[    0.000000]   Normal   empty
[    0.000000]   Device   empty
[    0.000000] Movable zone start for each node
[    0.000000] Early memory node ranges
[    0.000000]   node   0: [mem 0x0000000000001000-0x000000000009efff]
[    0.000000]   node   0: [mem 0x0000000000100000-0x000000001ffeffff]
[    0.000000] Initmem setup node 0 [mem 0x0000000000001000-0x000000001ffeffff]
[    0.000000] ACPI: PM-Timer IO Port: 0x4008
[    0.000000] IOAPIC[0]: apic_id 2, version 32, address 0xfec00000, GSI 0-23
[    0.000000] ACPI: INT_SRC_OVR (bus 0 bus_irq 0 global_irq 2 dfl dfl)
[    0.000000] ACPI: INT_SRC_OVR (bus 0 bus_irq 9 global_irq 9 low level)
[    0.000000] Using ACPI (MADT) for SMP configuration information
[    0.000000] smpboot: Allowing 2 CPUs, 0 hotplug CPUs
[    0.000000] PM: Registered nosave memory: [mem 0x00000000-0x00000fff]
[    0.000000] PM: Registered nosave memory: [mem 0x0009f000-0x0009ffff]
[    0.000000] PM: Registered nosave memory: [mem 0x000a0000-0x000effff]
[    0.000000] PM: Registered nosave memory: [mem 0x000f0000-0x00fff]
[   0000] 20:me 0x2000-xfebfff]vailab f PI devices
[    0.000000] Booting paravirtualized kernel on KVM
[    0.000000] clksrce: refined-jfis: mask: 0xffffffff max_cycles: 0xffffffff, max_idle_ns: 7645519600211568 ns
[    0.000000] setup_percpu: NR_CPUS:512 nr_cpumask_bits:512 nr_cpu_ids:2 nr_node_ids:1
[    0.000000] PERCPU: Embedded 34 pages/cpu @ffff88001fc00000 s99608 r8192 d31464 u1048576
[    0.000000] PV qspinlock hash table entries: 256 (order: 0, 4096 bytes)
[    0.000000] Built 1 zonelists in Node order, mobility grouping on.  Total pages: 128888
[    0.000000] Policy zone: DMA32
[    0.000000] Kernel command line: BOOT_IMAGE=/boot/vmlinuz-4.4.0-139-generic root=UUID=1c050405-4cdf-47cf-828d-1e284615b91e ro console=tty1 console=ttyS0
[    0.000000] PID hash table entries: 2048 (order: 2, 16384 bytes)
[    0.000000] Memory: 481064K/523832K available (8564K kernel code, 1314K rwdata, 4004K rodata, 1528K init, 1316K bss, 42768K reserved, 0K cma-reserved)
[    0.000000] SLUB: HWalign=64, Order=0-3, MinObjects=0, CPUs=2, Nodes=1
[    0.000000] Kernel/User page tables isolation: enabled
[    0.000000] Hierarchical RCU implementation.
[    0.000000] 	Build-time adjustment of leaf fanout to 64.
[    0.000000] 	RCU restricting CPUs from NR_CPUS=512 to nr_cpu_ids=2.
[    0.000000] RCU: Adjusting geometry for rcu_fanout_leaf=64, nr_cpu_ids=2
[    0.000000] NR_IRQS:33024 nr_irqs:440 16
[    0.000000] Console: colour VGA+ 80x25
[    0.000000] console [tty1] enabled
[    0.000000] console [ttyS ebld
[  00000] tsc: Detected 2207.998 MHz processor
[    0.768395] Calibrating delay loop (skipped) preset value.. 4415.99 BogoMIPS (lpj=8831992)
[    0.908567] pid_max: default: 32768 minimum: 301
[    0.909197] ACPI: Core revision 20150930
[    0.910446] ACPI: 2 ACPI AML tables successfully acquired and loaded
[    0.911344] Security Framework initialized
[    0.911898] Yama: becoming mindful.
[    0.912429] AppArmor: AppArmor initialized
[    0.913031] Dentry cache hash table entries: 65536 (order: 7, 524288 bytes)
[    1.002242] Inode-cache hash table entries: 32768 (order: 6, 262144 bytes)
[    1.003099] Mount-cache hash table entries: 1024 (order: 1, 8192 bytes)
[    1.003897] Mountpoint-cache hash table entries: 1024 (order: 1, 8192 bytes)
[    1.004864] Initializing cgroup subsys io
[    1.005452] Initializing cgroup subsys memory
[    1.006157] Initializing cgroup subsys devices
[    1.006921] Initializing cgroup subsys freezer
[    1.007559] Initializing cgroup subsys net_cls
[    1.009277] Initializing cgroup subsys perf_event
[    1.030914] Initializing cgroup subsys net_prio
[    1.031515] Initializing cgroup subsys hugetlb
[    1.032102] Initializing cgroup subsys pids
[    1.033706] mce: CPU supports 0 MCE banks
[    1.039542] Last level iTLB entries: 4KB 64, 2MB 8, 4MB 8
[    1.106777] Last level dTLB entries: 4KB 64, 2MB 0, 4MB 0, 1GB 4
[    1.109730] Spectre V2 : Mitigation: Full generic retpoline
[    1.110420] Spectre V2 : Spectre v2 mitigation: Speculation control IBPB not-supported IBRS not-supported
[    1.113615] Spectre V2 : Spectre v2 / SpectreRSB mitigation: Filling RSB on context switch
[    1.114887] Speculative Store Bypass: Vulnerable
[    1.117320] Freeing SMP alternatives memory: 32K
[    1.123710] ftrace: allocating 32278 entries in 127 pages
[    1.163355] smpboot: APIC(0) Converting physical 0 to logical package 0
[    1.364708] smpboot: Max logical packages: 1
[    1.445454] x2apic enabled
[    1.446243] Switched APIC routing to physical x2apic.
[    1.447683] ..TIMER: vector=0x30 apic1=0 pin1=2 apic2=-1 pin2=-1
[    1.556949] smpboot: CPU0: Intel(R) Core(TM) i7-8750H CPU @ 2.20GHz (family: 0x6, model: 0x9e, stepping: 0xa)
[    1.595148] Performance Events: unsupported p6 CPU model 158 no PMU driver, software events only.
[    1.596618] KVM setup paravirtual spinlock
[    1.610457] x86: Booting SMP configuration:
[    1.697237] .... node  #0, CPUs:      #1
[    1.719045] kvm-clock: cpu 1, msr 0:1ffe3041, secondary cpu clock
[    1.720712] mce: CPU supports 0 MCE banks
[    1.723151] x86: Booted up 1 node, 2 CPUs
[    1.729223] smpboot: Total of 2 processors activated (8831.99 BogoMIPS)
[    1.730764] devtmpfs: initialized
[    1.732623] evm: security.selinux
[    1.733129] evm: security.SMACK64
[    1.733612] evm: security.SMACK64EXEC
[    1.734125] evm: security.SMACK64TRANSMUTE
[    1.734677] evm: security.SMACK64MMAP
[    1.735190] evm: security.ima
[    1.735641] evm: security.capability
[    1.736265] clocksource: jiffies: mask: 0xffffffff max_cycles: 0xffffffff, max_idle_ns: 7645041785100000 ns
[    1.737497] futex hash table entries: 512 (order: 3, 32768 bytes)
[    1.738331] pinctrl core: initialized pinctrl subsystem
[    1.745652] RTC time: 12:37:50, date: 12/16/18
[    1.746433] NET: Registered protocol family 16
[    1.760764] cpuidle: using governor ladder
[    1.773132] cpuidle: using governor menu
[    1.860992] PCCT header not found.
[    1.861571] ACPI: bus type PCI registered
[    1.879938] acpiphp: ACPI Hot Plug PCI Controller Driver version: 0.5
[    1.880815] PCI: Using configuration type 1 for base access
[    1.911518] ACPI: Added _OSI(Module Device)
[    1.945336] ACPI: Added _OSI(Processor Device)
[    1.993594] ACPI: Added _OSI(3.0 _SCP Extensions)
[    1.994285] ACPI: Added _OSI(Processor Aggregator Device)
[    1.995566] ACPI: Executed 1 blocks of module-level executable AML code
[    2.062145] ACPI: Interpreter enabled
[    2.074365] ACPI: (supports S0 S5)
[    2.074936] ACPI: Using IOAPIC for interrupt routing
[    2.075932] PCI: Using host bridge windows from ACPI; if necessary, use "pci=nocrs" and report a bug
[    2.080224] ACPI: PCI Root Bridge [PCI0] (domain 0000 [bus 00-ff])
[    2.081145] acpi PNP0A03:00: _OSC: OS supports [ASPM ClockPM Segments MSI]
[    2.082115] acpi PNP0A03:00: _OSC: not requesting OS control; OS requires [ExtendedConfig ASPM ClockPM MSI]
[    2.083366] acpi PNP0A03:00: fail to add MMCONFIG information, can't access extended PCI configuration space under this bridge.
[    2.084944] PCI host bridge to bus 0000:00
[    2.086143] pci_bus 0000:00: root bus resource [io  0x0000-0x0cf7 window]
[    2.087831] pci_bus 0000:00: root bus resource [io  0x0d00-0xffff window]
[    2.089345] pci_bus 0000:00: root bus resource [mem 0x000a0000-0x000bffff window]
[    2.163196] pci_bus 0000:00: root bus resource [mem 0x20000000-0xfdffffff window]
[    2.164380] pci_bus 0000:00: root bus resource [bus 00-ff]
[    2.166280] pci 0000:00:01.1: legacy IDE quirk: reg 0x10: [io  0x01f0-0x01f7]
[    2.167126] pci 0000:00:01.1: legacy IDE quirk: reg 0x14: [io  0x03f6]
[    2.167904] pci 0000:00:01.1: legacy IDE quirk: reg 0x18: [io  0x0170-0x0177]
[    2.168746] pci 0000:00:01.1: legacy IDE quirk: reg 0x1c: [io  0x0376]
[    2.187469] pci 0000:00:07.0: quirk: [io  0x4000-0x403f] claimed by PIIX4 ACPI
[    2.294055] pci 0000:00:07.0: quirk: [io  0x4100-0x410f] claimed by PIIX4 SMB
[    2.343040] ACPI: PCI Interrupt Link [LNKA] (IRQs 5 9 10 *11)
[    2.353602] ACPI: PCI Interrupt Link [LNKB] (IRQs 5 9 *10 11)
[    2.361509] ACPI: PCI Interrupt Link [LNKC] (IRQs 5 *9 10 11)
[    2.377316] ACPI: PCI Interrupt Link [LNKD] (IRQs 5 9 10 *11)
[    2.381126] ACPI: Enabled 2 GPEs in block 00 to 07
[    2.404822] vgaarb: setting as boot device: PCI:0000:00:02.0
[    2.405629] vgaarb: device added: PCI:0000:00:02.0,decodes=io+mem,owns=io+mem,locks=none
[    2.406965] vgaarb: loaded
[    2.407408] vgaarb: bridge control possible 0000:00:02.0
[    2.415516] SCSI subsystem initialized
[    2.416154] ACPI: bus type USB registered
[    2.416737] usbcore: registered new interface driver usbfs
[    2.417438] usbcore: registered new interface driver hub
[    2.418159] usbcore: registered new device driver usb
[    2.419058] PCI: Using ACPI for IRQ routing
[    2.419860] NetLabel: Initializing
[    2.442429] NetLabel:  domain hash size = 128
[    2.443378] NetLabel:  protocols = UNLABELED CIPSOv4
[    2.445598] NetLabel:  unlabeled traffic allowed by default
[    2.446689] amd_nb: Cannot enumerate AMD northbridges
[    2.447504] clocksource: Switched to clocksource kvm-clock
[    2.452681] AppArmor: AppArmor Filesystem Enabled
[    2.453465] pnp: PnP ACPI init
[    2.454532] pnp: PnP ACPI: found 3 devices
[    2.463656] clocksource: acpi_pm: mask: 0xffffff max_cycles: 0xffffff, max_idle_ns: 2085701024 ns    2.485372] NET: Registered protocol family 2

[    2.528847] TCP established hash table entries: 4096 (order: 3, 32768 bytes)
[    2.535193] TCP bind hash table entries: 4096 (order: 4, 65536 bytes)
[    2.537204] TCP: Hash tables configured (established 4096 bind 4096)
[    2.549488] UDP hash table entries: 256 (order: 1, 8192 bytes)
[    2.550345] UDP-Lite hash table entries: 256 (order: 1, 8192 bytes)
[    2.551308] NET: gistered protocol family 1
[   2.593274] pci 0000:00:00.0: Limiting direct PCI/PCI transfers
[    2.614454] pci 0000:00:01.0: Activating ISA DMA hang workarounds
[    2.615853] Unpacking initramfs...

[    2.778050] Freeing initrd memory: 15360K
[    2.778873] platform rtc_cmos: registered platform RTC device (no PNP device found)
[    2.785369] Scanning for low memory corruption every 60 seconds
[    2.786542] audit: initializing netlink subsys (disabled)
[    2.787310] audit: type=2000 audit(1544963873.638:1): initialized
[    2.788353] Initialise system trusted keyring
[    2.789192] HugeTLB registered 2 MB page size, pre-allocated 0 pages
[    2.796631] zbud: loaded
[    2.797433] VFS: Disk quotas dquot_6.6.0
[    2.798051] VFS: Dquot-cache hash table entries: 512 (order 0, 4096 bytes)
[    2.799178] squashfs: version 4.0 (2009/01/31) Phillip Lougher
[    2.801354] fuse init (API version 7.23)
[    2.802106] Key type big_key registered
[    2.802742] Allocating IMA MOK and blacklist keyrings.
[    2.804381] Key type asymmetric registered
[    2.805043] Asymmetric key parser 'x509' registered
[    2.805885] Block layer SCSI generic (bsg) driver version 0.4 loaded (major 249)
[    2.807069] io scheduler noop registered
[    2.807673] io scheduler deadline registered (default)
[    2.808419] io scheduler cfq registered
[    2.809165] pci_hotplug: PCI Hot Plug PCI Core version: 0.5
[    2.809940] pciehp: PCI Express Hot Plug Controller Driver version: 0.4
[    2.810908] ACPI: AC Adapter [AC] (on-line)
[    2.811583] input: Power Button as /devices/LNXSYSTM:00/LNXPWRBN:00/input/input0
[    2.812686] ACPI: Power Button [PWRF]
[    2.813336] input: Sleep Button as /devices/LNXSYSTM:00/LNXSLPBN:00/input/input1
[    2.814432] ACPI: Sleep Button [SLPF]
[    2.816233] GHES: HEST is not enabled!
[    2.816670] ACPI: Battery Slot [BAT0] (battery present)
[    2.817786] Serial: 8250/16550 driver, 32 ports, IRQ sharing enabled
[    2.839959] 00:02: ttyS0 at I/O 0x3f8 (irq = 4, base_baud = 115200) is a 16550A
[    2.846183] Linux agpgart interface v0.103
[    2.848158] loop: module loaded
[    2.849202] scsi host0: ata_piix
[    2.855233] scsi host1: ata_piix
[    2.855811] ata1: PATA max UDMA/33 cmd 0x1f0 ctl 0x3f6 bmdma 0xd000 irq 14
[    2.856806] ata2: PATA max UDMA/33 cmd 0x170 ctl 0x376 bmdma 0xd008 irq 15
[    2.857811] libphy: Fixed MDIO Bus: probed
[    2.887000] tun: Universal TUN/TAP device driver, 1.6
[    2.887745] tun: (C) 1999-2004 Max Krasnyansky <maxk@qualcomm.com>
[    2.888732] PPP generic driver version 2.4.2
[    2.889506] ehci_hcd: USB 2.0 'Enhanced' Host Controller (EHCI) Driver
[    2.890411] ehci-pci: EHCI PCI platform driver
[    2.891091] ehci-platform: EHCI generic platform driver
[    2.891866] ohci_hcd: USB 1.1 'Open' Host Controller (OHCI) Driver
[    2.892728] ohci-pci: OHCI PCI platform driver
[    2.893407] ohci-platform: OHCI generic platform driver
[    2.899453] uhci_hcd: USB Universal Host Controller Interface driver
[    2.901495] i8042: PNP: PS/2 Controller [PNP0303:PS2K,PNP0f03:PS2M] at 0x60,0x64 irq 1,12
[    2.903069] serio: i8042 KBD port at 0x60,0x64 irq 1
[    2.903815] serio: i8042 AUX port at 0x60,0x64 irq 12
[    2.904764] mousedev: PS/2 mouse device common for all mice
[    2.905888] input: AT Translated Set 2 keyboard as /devices/platform/i8042/serio0/input/input2
[    2.907471] rtc_cmos rtc_cmos: rtc core: registered rtc_cmos as rtc0
[    2.908405] rtc_cmos rtc_cmos: alarms up to one day, 114 bytes nvram
[    2.909290] i2c /dev entries driver
[    2.915200] device-mapper: uevent: version 1.0.3
[    2.915995] device-mapper: ioctl: 4.34.0-ioctl (2015-10-28) initialised: dm-devel@redhat.com
[    2.917259] ledtrig-cpu: registered to indicate activity on CPUs
[    2.918458] NET: Registered protocol family 10
[    2.919303] NET: Registered protocol family 17
[    2.925256] Key type dns_resolver registered
[    2.926288] registered taskstats version 1
[    2.926930] Loading compiled-in X.509 certificates
[    2.928070] Loaded X.509 cert 'Build time autogenerated kernel key: a88b0f663ecfd40e6a501dee2f0b211d51902e35'
[    2.934787] zswap: loaded using pool lzo/zbud
[    2.936810] Key type trusted registered
[    2.939674] Key type encrypted registered
[    2.940306] AppArmor: AppArmor sha1 policy hashing enabled
[    2.941095] ima: No TPM chip found, activating TPM-bypass!
[    2.941882] ima: Allocated hash algorithm: sha1
[    2.942572] evm: HMAC attrs: 0x1
[    2.943393]   Magic number: 14:93:633
[    2.944091] rtc_cmos rtc_cmos: setting system clock to 2018-12-16 12:37:51 UTC (1544963871)
[    2.945448] BIOS EDD facility v0.16 2004-Jun-25, 0 devices found
[    2.946306] EDD information not available.
[    3.018061] Freeing unused kernel memory: 1528K
[    3.021403] Write protecting the kernel read-only data: 14336k
[    3.549128] Freeing unused kernel memory: 1664K
[    3.639951] Freeing unused kernel memory: 92K
Loading, please wait...
[    3.652548] random: systemd-udevd: uninitialized urandom read (16 bytes read, 3 bits of entropy available)
starting version 229
[    3.653016] random: udevadm: uninitialized urandom read (16 bytes read, 3 bits of entropy available)
[    3.653031] random: udevadm: uninitialized urandom read (16 bytes read, 3 bits of entropy available)
[    3.659727] random: udevadm: uninitialized urandom read (16 bytes read, 3 bits of entropy available)
[    3.659762] random: udevadm: uninitialized urandom read (16 bytes read, 3 bits of entropy available)
[    3.659867] random: udevadm: uninitialized urandom read (16 bytes read, 3 bits of entropy available)
[    3.659902] random: udevadm: uninitialized urandom read (16 bytes read, 3 bits of entropy available)
[    3.659938] random: udevadm: uninitialized urandom read (16 bytes read, 3 bits of entropy available)
[    3.659974] random: udevadm: uninitialized urandom read (16 bytes read, 3 bits of entropy available)
[    3.660006] random: udevadm: uninitialized urandom read (16 bytes read, 3 bits of entropy available)
[    3.781157] tsc: Refined TSC clocksource calibration: 2208.789 MHz
[    3.797949] clocksource: tsc: mask: 0xffffffffffffffff max_cycles: 0x1fd6a180bad, max_idle_ns: 440795311388 ns
[    3.818142] e1000: Intel(R) PRO/1000 Network Driver - version 7.3.21-k8-NAPI
[    4.140395] e1000: Copyright (c) 1999-2006 Intel Corporation.
[    4.168716] Fusion MPT base driver 3.04.20
[    4.169318] Copyright (c) 1999-2008 LSI Corporation
[    4.176723] Fusion MPT SPI Host driver 3.04.20
[    4.179063] mptbase: ioc0: Initiating bringup
[    4.186617] AVX2 version of gcm_enc/dec engaged.
[    4.187249] AES CTR mode by8 optimization enabled
[    4.250286] ioc0: [    4.378447] input: ImExPS/2 Generic Explorer Mouse as /devices/platform/i8042/serio1/input/input4

[    4.380154] LSI53C1030 A0: Capabilities={Initiator}
[    4.558314] scsi host2: ioc0: LSI53C1030 A0, FwRev=00000000h, Ports=1, MaxQ=256, IRQ=20
[    4.686196] scsi 2:0:0:0: Direct-Access     VBOX     HARDDISK         1.0  PQ: 0 ANSI: 5
[    4.730502] scsi target2:0:0: Beginning Domain Validation
[    4.732083] scsi target2:0:0: Domain Validation skipping write tests
[    4.732930] scsi target2:0:0: Ending Domain Validation
[    4.733668] scsi target2:0:0: asynchronous
[    4.734764] scsi 2:0:1:0: Direct-Access     VBOX     HARDDISK         1.0  PQ: 0 ANSI: 5
[    4.735846] scsi target2:0:1: Beginning Domain Validation
[    4.737120] scsi target2:0:1: Domain Validation skipping write tests
[    4.737884] scsi target2:0:1: Ending Domain Validation
[    4.738740] scsi target2:0:1: asynchronous
[    4.812369] sd 2:0:0:0: Attached scsi generic sg0 type 0
[    4.847843] sd 2:0:0:0: [sda] 20971520 512-byte logical blocks: (10.7 GB/10.0 GiB)
[    4.896766] sd 2:0:1:0: Attached scsi generic sg1 type 0
[    4.897521] sd 2:0:1:0: [sdb] 20480 512-byte logical blocks: (10.5 MB/10.0 MiB)
[    4.898902] sd 2:0:1:0: [sdb] Write Protect is off
[    4.899718] sd 2:0:0:0: [sda] Write Protect is off
[    4.900408] sd 2:0:1:0: [sdb] Incomplete mode parameter data
[    4.901162] sd 2:0:1:0: [sdb] Assuming drive cache: write through
[    4.902233] sd 2:0:0:0: [sda] Incomplete mode parameter data
[    4.902993] sd 2:0:0:0: [sda] Assuming drive cache: write through
[    4.935134]  sda: sda1
[    4.942491] sd 2:0:1:0: [sdb] Attached SCSI disk
[    4.957726] sd 2:0:0:0: [sda] Attached SCSI disk
[    5.117152] e1000 0000:00:03.0 eth0: (PCI:33MHz:32-bit) 02:09:ed:a5:b0:a8
[    5.209844] e1000 0000:00:03.0 eth0: Intel(R) PRO/1000 Network Connection
[    5.578823] e1000 0000:00:08.0 eth1: (PCI:33MHz:32-bit) 08:00:27:f9:58:b5
[    5.592835] e1000 0000:00:08.0 eth1: Intel(R) PRO/1000 Network Connection
[    5.970138] e1000 0000:00:09.0 eth2: (PCI:33MHz:32-bit) 08:00:27:05:fd:d2
[    5.978055] e1000 0000:00:09.0 eth2: Intel(R) PRO/1000 Network Connection
[    5.982321] e1000 0000:00:03.0 enp0s3: renamed from eth0
[    5.996095] e1000 0000:00:08.0 enp0s8: renamed from eth1
[    6.044727] e1000 0000:00:09.0 enp0s9: renamed from eth2
Begin: Loading e[    7.346826] md: linear personality registered for level -1
ssential drivers ... [    7.399666] md: multipath personality registered for level -4
[    7.401971] md: raid0 personality registered for level 0
[    7.404579] md: raid1 personality registered for level 1
[    7.475567] raid6: sse2x1   gen() 13331 MB/s
[    7.547545] raid6: sse2x1   xor()  9906 MB/s
[    7.623552] raid6: sse2x2   gen() 16883 MB/s
[    7.703554] raid6: sse2x2   xor() 11664 MB/s
[    7.783520] raid6: sse2x4   gen() 19244 MB/s
[    7.943558] raid6: sse2x4   xor() 11390 MB/s
[    8.067555] raid6: avx2x1   gen() 26689 MB/s
[    8.259559] raid6: avx2x2   gen() 31954 MB/s
[    8.367562] raid6: avx2x4   gen() 32879 MB/s
[    8.418494] raid6: using algorithm avx2x4 gen() 32879 MB/s
[    8.424488] raid6: using avx2x2 recovery algorithm
[    8.426105] xor: automatically using best checksumming function:
[    8.497961]    avx       : 74290.000 MB/sec
[    8.525507] async_tx: api initialized (async)
[    8.531799] md: raid6 personality registered for level 6
[    8.582706] md: raid5 personality registered for level 5
[    8.680722] md: raid4 personality registered for level 4
[    8.685570] md: raid10 personality registered for level 10
done.
Begin: Running /scripts/i[    8.829751] Btrfs loaded
nit-premount ... done.
Begin: M[    9.108624] EXT4-fs (sda1): INFO: recovery required on readonly filesystem
ounting root file system ... Begin: Running /scr[    9.497437] EXT4-fs (sda1): write access will be enabled during recovery
ipts/local-top ... done.
Begin: Running /scripts/local-premount ... Scanning for Btrfs filesystems
done.
Warning: fsck not present, so skipping root file system
[    9.520878] EXT4-fs (sda1): recovery complete
[    9.628652] EXT4-fs (sda1): mounted filesystem with ordered data mode. Opts: (null)
done.
Begin: Running /scripts/local-bottom ... done.
Begin: Running /scripts/init-bottom ... done.
[ 1041212] random: nonbloocking pool is initialized
[   10.573020] systemd[1]: systemd 229 running in system mode. (+PAM +AUDIT +SELINUX +IMA +APPARMOR +SMACK +SYSVINIT +UTMP +LIBCRYPTSETUP +GCRYPT +GNUTLS +ACL +XZ -LZ4 +SECCOMP +BLKID +ELFUTILS +KMOD -IDN)
[   10.575531] systemd[1]: Detected virtualization oracle.
[   10.576293] systemd[1]: Detected architecture x86-64.

Welcome to [1mUbuntu 16.04.5 LTS[0m!

[   10.597781] systemd[1]: Set hostname to <redis3>.
[   11.526194] systemd[1]: Reached target User and Group Name Lookups.
[[0;32m  OK  [0m] Reached target User and Group Name Lookups.
[  11.571476] systemd[1]: StarteForward Password Requests to Wall Directory Watch.
[[0;32m  OK  [0m] Started Forward Password Requests to Wall Directory Watch.
[   11.638686] systemd[1]: Listening on LVM2 metadata dem ske
[[0;32m  OK  [0m] Listening on LVM2 metadata daemon socket.
[  1.13880] systemd[1]: Set up automount Arbitrary Executable File Formats File System Automount Point.
[[0;32m  OK  [0m] Set up automount Arbitrary Executab...ats File System Automount Point.
[   11.879209] systemd[1]: Listening on Journal Socket.
[[0;32m  OK  [0m] Listening on Journal Socket.
[   11.936016] systemd[1]: Listening on Device-mapper event daemon FIFOs.
[[0;32m  OK  [0m] Listening on Device-mapper event daemon FIFOs.
[   11.937774] systemd[1]: Listening on udev Kernel Socket.
[[0;32m  OK  [0m] Listening on udev Kernel Socket.
[   11.939310] systemd[1]: Started Trigger resolvconf update for networkd DNS.
[[0;32m  OK  [0m] Started Trigger resolvconf update for networkd DNS.
[   11.948489] systemd[1]: Listening on /dev/initctl Compatibility Named Pipe.
[[0;32m  OK  [0m] Listening on /dev/initctl Compatibility Named Pipe.
[   11.950272] systemd[1]: Reached target Swap.
[[0;32m  OK  [0m] Reached target Swap.
[   11.951826] systemd[1]: Created slice User and Session Slice.
[[0;32m  OK  [0m] Created slice User and Session Slice.
[   11.953390] systemd[1]: Listening on Journal Socket (/dev/log).
[[0;32m  OK  [0m] Listening on Journal Socket (/dev/log).
[   11.954964] systemd[1]: Reached target Encrypted Volumes.
[[0;32m  OK  [0m] Reached target Encrypted Volumes.
[   11.956471] systemd[1]: Listening on udev Control Socket.
[[0;32m  OK  [0m] Listening on udev Control Socket.
[  11.958476] systemd[1]: Listening on Syslog Socket.
[[0;32m  OK  [0m] Listening on Syslog Socket.
[   11.982917] systemd[1]: Listening on Journal Audit Socket.
[[0;32m  OK  [0m] Listening on Journal Audit Socket.
[   11.984624] systemd[1]: Created slice System Slice.
[[0;32m  OK  [0m] Created slice System Slice.

[   11.995706] systemd[1]: Mounting POSIX Message Queue File System...
         Mounting POSIX Message Queue File System...
[   12.223827] systemd[1]: Mounting Debug File System...
         Mounting Debug File System...
[   12.359419] systemd[1]: Starting Load Kernel Modules...
         Starting Load Kernel Modules...
[   12.395680] systemd[1]: Starting Uncomplicated firewall...
         Starting Uncomplicated firewall...
[   12.402877] systemd[1]: Starting Monitoring of LVM2 mirrors, snapshots etc. using dmeventd or progress polling...
         Starting Monitoring of LVM2 mirrors... dmeventd or progress polling...
[   12.405630] systemd[1]: Starting Set console keymap...
         Starting Set console keymap...
[   12.407887] systemd[1]: Reached target Slices.
[[0;32m  OK  [0m] Reached target Slices.
[   12.410267] systemd[1]: Starting Journal Service...
         Starting Journal Service...
[   12.411990] systemd[1]: Starting Nameserver information manager...
         Starting Nameserver information manager...
[   12.413719] systemd[1]: Created slice system-serial\x2dgetty.slice.
[[0;32m  OK  [0m] Created slice system-serial\x2dgetty.slice.
[   12.419943] systemd[1]: Reached target System Time Synchronized.
[[0;32m  OK  [0m] Reached target System Time Synchronized.
[   12.544686] systemd[1]: Starting Remount Root and Kernel File Systems...
         Starting Remount Root and Kernel File Systems...
[   12.546736] systemd[1]: Starting Create list of required static device nodes for the current kernel...
         Starting Create list of required st... nodes for the current kernel...
[   12.549296] systemd[1]: Mounting Huge Pages File System...
         Mounting Huge Pages File System...
[   12.550788] systemd[1]: Listening on LVM2 poll daemon socket.
[[0;32m  OK  [0m] Listening on LVM2 poll daemon so[   12.554987] EXT4-fs (sda1): re-mounted. Opts: (null)
cket.
[   12.573135] systemd[1]: Mounted POSIX Message Queue File System.
[[0;32m  OK  [0m] Mounted POSIX Message Queue File System.
[   12.574733] systemd[1]: Mounted Debug File System.
[[0;32m  OK  [0m] Mounted Debug File System.
[   12.576118] systemd[1]: Mounted Huge Pages File System.
[[0;32m  OK  [0m] Mounted Huge Pages File System.
[   12.578400] systemd[1]: Started Remount Root and Kernel File Systems.
[[0;32m  OK  [0[   12.598576] Loading iSCSI transport class v2.0-870.
m] Started Remount Root and Kernel File Systems.
[   12.630669] systemd[1]: Started Uncomplicated firewall.
[[0;32m  OK  [0m] Started Uncomplicated firewall.
[   12.659692] systemd[1]: Started Nameserver information manager.
[[0;32m  OK  [0m] Started Nameserver information manager.
[   12.669527] systemd[1]: Started Create list of required static device nodes for the current kernel.
[[0;32m  OK  [0m] Started Create list of required sta...ce nodes for the current kernel.
[   12.683636] systemd[1]: Starting Create Static Device Nodes in /dev...
         Starting Create Static Device Nodes in /dev...
[   12.940104] systemd[1]: Starting Load/Save Random Seed...
         Starting Load/Save Random Seed...
[   13.038086] iscsi: registered transport (tcp)
[   13.056876] systemd[1]: Starting udev Coldplug all Devices...
         Starting udev Coldplug all Devices...
[   13.160260] systemd[1]: Started Journal Service.
[[0;32m  OK  [0m] Started Journal Service.
         Starting Flush Journal to Persistent Storage...
[[0;32m  OK  [0m] Started udev Coldplug all Devices.
[[0;32m  OK  [0m] Started Set console keymap.
[[0;32m  OK  [0m] Started Load/Save Random Seed.
[   13.27674]]sssseeddjjuunnald[38]]  eeeeived request to flush runtime journal from PID 1
[[0;32m  OK  [0m] Started Flush Journal to Persistent Storage.
[[0;32m  OK  [0m] Started LVM2 metadata daemon.
[   13.83322]]iiccii  reiittrrddttrassoort (iser
[[0;32m  OK  [0m] Started Load Kernel Modules.
         Starting Apply Kernel Variables...
         Mounting FUSE Control File System...
[[0;32m  OK  [0m] Started Create Static Device Nodes in /dev.
[[0;32m  OK  [0m] Mounted FUSE Control File System.
         Starting udev Kernel Device Manager...
[[0;32m  OK  [0m] Started Monitoring of LVM2 mirrors,...ng dmeventd or progress polling.
[[0;32m  OK  [0m] Started Apply Kernel Variables.
[[0;32m  OK  [0m] Started udev Kernel Device Manager.
[[0;32m  OK  [0m] Reached target Local File Systems (Pre).
[[0;32m  OK  [0m] Reached target Local File Systems.
         Starting Create Volatile Files and Directories...
         Starting Initial cloud-init job (pre-networking)...
         Starting LSB: AppArmor initialization...
         Starting Tell Plymouth To Write Out Runtime Data...
         Starting Set console font and keymap...
[[0;32m  OK  [0m] Started Dispatch Password Requests to Console Directory Watch.
[[0;32m  OK  [0m] Started Create Volatile Files and Directories.
[[0;32m  OK  [0m] Started Tell Plymouth To Write Out Runtime Data.
         Starting Update UTMP about System Boot/Shutdown...
[[0;32m  OK  [0m] Found device /dev/ttyS0.
[[0;32m  OK  [0m] Listening on Load/Save RF Kill Switch Status /dev/rfkill Watch.
[[0;32m  OK  [0m] Started Update UTMP about System Boot/Shutdown.
[[0;32m  OK  [0m] Found device 82540EM Gigabit Ethern...r (PRO/1000 MT Desktop Adapter).
[[0;32m  OK  [0m] Found device 82540EM Gigabit Ethern...r (PRO/1000 MT Desktop Adapter).
[[0;32m  OK  [0m] Found device 82540EM Gigabit Ethern...r (PRO/1000 MT Desktop Adapter).
[[0;32m  OK  [0m] Started Set console font and keymap.
[[0;32m  OK  [0m] Created slice system-getty.slice.
[[0;32m  OK  [0m] Started LSB: AppArmor initialization.
[   17.349210] cloud-init[477]: Cloud-init v. 18.3-9-g2e62cb8a-0ubuntu1~16.04.2 running 'init-local' at Sun, 16 Dec 2018 12:38:07 +0000. Up 16.83 seconds.
[[0;32m  OK  [0m] Started Initial cloud-init job (pre-networking).
[[0;32m  OK  [0m] Reached target Network (Pre).
         Starting Raise network interfaces...
[[0;32m  OK  [0m] Started ifup for enp0s3.
[[0;32m  OK  [0m] Started ifup for enp0s8.
[[0;32m  OK  [0m] Started ifup for enp0s9.
[[0;32m  OK  [0m] Started Raise network interfaces.
         Starting Initial cloud-init job (metadata service crawler)...
[[0;32m  OK  [0m] Reached target Network.
[   19.920837] cloud-init[1196]: Cloud-init v. 18.3-9-g2e62cb8a-0ubuntu1~16.04.2 running 'init' at Sun, 16 Dec 2018 12:38:09 +0000. Up 19.30 seconds.
[   19.946812] cloud-init[1196]: ci-info: +++++++++++++++++++++++++++++++++++++++Net device info++++++++++++++++++++++++++++++++++++++++
[   19.974970] cloud-init[1196]: ci-info: +--------+------+-----------------------------+-----------------+--------+-------------------+
[   19.976834] cloud-init[1196]: ci-info: | Device |  Up  |           Address           |       Mask      | Scope  |     Hw-Address    |
[[0;32m  OK  [0m] Started Initial cloud-init job (metadata service crawler).
[   19.979635] cloud-init[1196]: ci-info: +--------+------+-----------------------------+-----------------+--------+-------------------+
[   19.983574] [[0;32m  OK  [0m] Reached target Network is Online.
cloud-init[1196]: ci-info: | enp0s3 | True |          10.0.2.15          |  255.255.255.0  | global | 02:09:ed:a5:b0:a8 |
[   20.005819]          Starting iSCSI initiator daemon (iscsid)...
[[0;32m  OK  [0m] Reached target Cloud-config availability.
[[0;32m  OK  [0m] Reached target System Initialization.
[[0;32m  OK  [0m] Listening on D-Bus System Message Bus Socket.
         Starting Socket activation for snappy daemon.
cloud-init[1196]: ci-info: | enp0s3 | True |  fe80::9:edff:fea5:b0a8/64  |        .        |  link  | 02:09:ed:a5:b0:a8 |
[   20.008937] cloud-init[1196]: ci-info: | enp0s8 | True |        192.168.34.13        |  255.255.255.0  | global | 08:00:27:f9:58:b5 |
[   20.027855] cloud-init[1196]: ci-info: | enp0s8 | True | fe80::a00:27ff:fef9:58b5/64 |        .        |  link  | 08:00:27:f9:58:b5 |
[   20.138452] [cloud-init[0;32m  OK  [0m[1196]: ] ci-info: | enp0s9 | True |        10.151.30.131        | 255.255.255.128 | global | 08:00:27:05:fd:d2 |Started ACPI Events Check.

[   20.212535] [[0;32m  OK  [0m] Reached target Paths.
cloud-init[1196]: ci-info: | enp0s9 | True | fe80::a00:27ff:fe05:fdd2/64 |        .        |  link  | 08:00:27:05:fd:d2 |
[   20.220571] cloud-init[1196]: ci-info: |   lo   | True |          127.0.0.1          |    255.0.0.0    |  host  |         .         |
[   20.227548] cloud-init[1196]: ci-info: |   lo   | True |           ::1/128           |        .        |  host  |         .         |
[   20.250384] [[0;32m  OK  [0m] Started Daily apt download activities.
[[0;32m  OK  [0m] Listening on ACPID Listen Socket.
cloud-init[1196]: ci-info: +--------+------+-----------------------------+-----------------+--------+-------------------+
[   20.291542]          Starting LXD - unix socket.
[[0;32m  OK  [0m] Listening on UUID daemon activation socket.
[[0;32m  OK  [0m] Started Daily Cleanup of Temporary Directories.
[[0;32m  OK  [0m] Started Daily apt upgrade and clean activities.
[[0;32m  OK  [0m] Reached target Timers.
cloud-init[1196]: ci-info: +++++++++++++++++++++++++++++Route IPv4 info++++++++++++++++++++++++++++++
[   20.296061] cloud-init[1196]: ci-info: +-------+---------------+----------+-----------------+-----------+-------+
[   20.308524] [[0;32m  OK  [0m] Listening on Socket activation for snappy daemon.
[[0;32m  OK  [0m] Listening on LXD - unix socket.
cloud-init[1196]: ci-info: | Route |  Destination  | Gateway  |     Genmask     | Interface | Flags |
[   20.345919] [[0;32m  OK  [0m] Reached target Sockets.
[[0;32m  OK  [0m] Reached target Basic System.
cloud-init[1196]: ci-info: +-------+---------------+----------+-----------------+-----------+-------+
[   20.349085] cloud-init[1196]: ci-info: |   0   |    0.0.0.0    | 10.0.2.2 |     0.0.0.0     |   enp0s3  |   UG  |
[   20.355224] cloud-init[1196]: ci-info: |   1   |    10.0.2.0   | 0.0.0.0  |  255.255.255.0  |   enp0s3  |   U   |
[[0;32m  OK  [0m] Started Regular background program processing daemon.
[   20.365051] cloud-init[1196]: ci-info: |   2   | 10.151.30.128 | 0.0.0.0  | 255.255.255.128 |   enp0s9  |   U   |
[   20.372378] cloud-init[1196]: ci-info: |   3   |  192.168.34.0 | 0.0.0.0  |  255.255.255.0  |   enp0s8  |   U   |
         Starting Login Service...
[   20.376979] cloud-init[1196]: ci-info: +-------+---------------+----------+-----------------+-----------+-------+
[   20.409698]          cloud-initStarting System Logging Service...[1196]: 
ci-info: +++++++++++++++++++Route IPv6 info+++++++++++++++++++
         Starting LSB: Record successful boot for GRUB...
[   20.451099] cloud-init[1196]: ci-info: +-------+-------------+---------+-----------+-------+
[   20.534576]          cloud-initStarting Virtualbox guest utils...[1196]: 
ci-info: | Route | Destination | Gateway | Interface | Flags |
[   20.543834] cloud-init[1196]: ci-info: +-------+-------------+---------+-----------+-------+
[   20.548747] cloud-init[1196]: ci-info: |   0   |  fe80::/64  |    ::   |   enp0s8  |   U   |
[   20.574157]          Starting LSB: MD monitoring daemon...
cloud-init[1196]: ci-info: |   1   |  fe80::/64  |    ::   |   enp0s9  |   U   |
[   20.576987] cloud-init[1196]: ci-info: |   2   |  fe80::/64  |    ::   |   enp0s3  |   U   |
[   20.621014]          cloud-initStarting OpenBSD Secure Shell server...[1196]: 
ci-info: |   8   |   ff00::/8  |    ::   |   enp0s8  |   U   |
[   20.630176] [[0;32m  OK  [0m] Started Unattended Upgrades Shutdown.
cloud-init[1196]: ci-info: |   9   |   ff00::/8  |    ::   |   enp0s9  |   U   |
[   20.638117] cloud-init[1196]: ci-info: |   10  |   ff00::/8  |    ::   |   enp0s3  |   U   |
[   20.661618] [[0;32m  OK  [0m] Started Deferred execution scheduler.
cloud-init[1196]:          Starting /etc/rc.local Compatibility...
[[0;32m  OK  [0m] Started FUSE filesystem for LXC.
ci-info: +-------+-------------+---------+-----------+-------+
[[0;32m  OK  [0m] Started ACPI event daemon.
         Starting LXD - container startup/shutdown...
         Starting Accounts Service...
[[0;32m  OK  [0m] Started D-Bus System Message Bus.
         Starting Snappy daemon...
[[0;32m  OK  [0m] Started System Logging Service.
[[0;32m  OK  [0m] Started iSCSI initiator daemon (iscsid).
[[0;32m  OK  [0m] Started /etc/rc.local Compatibility.
[[0;32m  OK  [0m] Started OpenBSD Secure Shell server.
         Starting Login to default iSCSI targets...
[[0;32m  OK  [0m] Started Login Service.
[[0;32m  OK  [0m] Started LSB: Record successful boot for GRUB.
         Starting Authenticate and Authorize Users to Run Privileged Tasks...
[[0;32m  OK  [0m] Started LSB: MD monitoring daemon.
[[0;32m  OK  [0m] Started Login to default iSCSI targets.
[[0;32m  OK  [0m] Reached target Remote File Systems (Pre).
[[0;32m  OK  [0m] Reached target Remote File Systems.
         Starting LSB: Set the CPU Frequency Scaling governor to "ondemand"...
         Starting LSB: automatic crash report generation...
         Starting LSB: daemon to balance interrupts for SMP systems...
         Starting Permit User Sessions...
[[0;32m  OK  [0m] Started Authenticate and Authorize Users to Run Privileged Tasks.
[[0;32m  OK  [0m] Started Permit User Sessions.
[[0;32m  OK  [0m] Started Accounts Service.
[[0;32m  OK  [0m] Started LSB: Set the CPU Frequency Scaling governor to "ondemand".
         Starting Hold until boot process finishes up...
         Starting Terminate Plymouth Boot Screen...
[[0;32m  OK  [0m] Started LSB: automatic crash report generation.
[[0;32m  OK  [0m] Started Hold until boot process finishes up.
[[0;32m  OK  [0m] Started LSB: daemon to balance interrupts for SMP systems.
[[0;32m  OK  [0m] Started Terminate Plymouth Boot Screen.
[[0;32m  OK  [0m] Started Getty on tty1.
         Starting Set console scheme...
[[0;32m  OK  [0m] Started Serial Getty on ttyS0.
[[0;32m  OK  [0m] Reached target Login Prompts.
[[0;32m  OK  [0m] Started Set console scheme.
[[0;32m  OK  [0m] Started Virtualbox guest utils.
[[0;32m  OK  [0m] Started LXD - container startup/shutdown.
[[0;32m  OK  [0m] Started Snappy daemon.
         Starting Wait until snapd is fully seeded...
[[0;32m  OK  [0m] Started Wait until snapd is fully seeded.
         Starting Apply the settings specified in cloud-config...
[[0;32m  OK  [0m] Reached target Multi-User System.
[[0;32m  OK  [0m] Reached target Graphical Interface.
         Starting Update UTMP about System Runlevel Changes...
[[0;32m  OK  [0m] Started Update UTMP about System Runlevel Changes.
[   23.720555] cloud-init[1431]: Cloud-init v. 18.3-9-g2e62cb8a-0ubuntu1~16.04.2 running 'modules:config' at Sun, 16 Dec 2018 12:38:14 +0000. Up 23.60 seconds.
[[0;32m  OK  [0m] Started Apply the settings specified in cloud-config.
         Starting Execute cloud user/final scripts...
[   24.014990] cloud-init[1444]: Cloud-init v. 18.3-9-g2e62cb8a-0ubuntu1~16.04.2 running 'modules:final' at Sun, 16 Dec 2018 12:38:14 +0000. Up 23.93 seconds.
[   24.101455] cloud-init[1444]: Cloud-init v. 18.3-9-g2e62cb8a-0ubuntu1~16.04.2 finished at Sun, 16 Dec 2018 12:38:14 +0000. Datasource DataSourceNoCloud [seed=/dev/sdb][dsmode=net].  Up 24.01 seconds
[[0;32m  OK  [0m] Started Execute cloud user/final scripts.
[[0;32m  OK  [0m] Reached target Cloud-init target.
         Starting Daily apt download activities...
[[0;32m  OK  [0m] Created slice User Slice of vagrant.
         Starting User Manager for UID 1000...
[[0;32m  OK  [0m] Started Session 1 of user vagrant.
[[0;32m  OK  [0m] Started User Manager for UID 1000.

Ubuntu 16.04.5 LTS redis3 ttyS0

redis3 login: 